,HV,RPC4,RPC4_std,RPC7,RPC7_std,run,RPC4-beam,RPC7-beam
0,8000.0,1.100000023841858,0.0,0.6000000238418579,0.0,ABS113(4,,
1,8600.0,1.0,0.6567002265213624,2.0,0.8817813799367227,ABS113(4,7.5,10.5
2,8800.0,12.5,0.03875548662804388,18.799999237060547,0.045584404473894946,ABS113(4,12.600000381469727,18.899999618530273
3,9000.0,19.100000381469727,0.0541708067475801,29.399999618530273,0.042366088900003124,ABS113(4,19.299999237060547,29.5
4,9200.0,26.700000762939453,0.09980174076803226,41.29999923706055,0.06472744550956899,ABS113(4,27.0,41.599998474121094
5,9400.0,35.0,0.06621661448897999,54.20000076293945,0.08494375448533725,ABS113(4,35.20000076293945,54.5
6,9600.0,43.900001525878906,0.10659993991498222,67.69999694824219,0.1082118636150009,ABS113(4,44.20000076293945,68.19999694824219
7,9800.0,53.400001525878906,0.0642722962266697,82.0,0.10755093138657801,ABS113(4,53.599998474121094,82.4000015258789
8,10000.0,63.0,0.08081282011750558,96.5999984741211,0.1414354511600777,ABS113(4,63.400001525878906,97.4000015258789
9,10200.0,73.0999984741211,0.06710064164448923,112.4000015258789,0.1269009867494176,ABS113(4,73.4000015258789,112.80000305175781
10,10400.0,83.4000015258789,0.11590677473502004,129.0,0.15804985117647982,ABS113(4,83.9000015258789,129.6999969482422
